…
For example, to load all your activities you would do the following:

```r
library(tidyverse)
library(duckdb)

# Connect to the database
con <- dbConnect(duckdb(), "data.db")

tbl(con, "activities") |>
    collect()  # This command reads the data from the DB into memory
```

```
# A tibble: 1,171 × 7
   activity_id activity_type name                                            start_time          distance duration elevation
         <dbl> <chr>         <chr>                                           <dttm>                 <dbl>    <dbl>     <dbl>
 1  9329577757 Run           "Stretching legs"                               2023-06-25 06:43:26     7.5      2534      18.3
 2  9337323631 Run           "Cow cow cow"                                   2023-06-26 11:22:44     8.01     2667      42.9
 3  9342310857 Run           "Bish"                                          2023-06-27 06:58:44     8        2605      20.2
 4  9355605801 Run           "Acaster Malbis river"                          2023-06-29 09:12:45    16        5516      17.0
 5  9361568591 Run           "Recovery"                                      2023-06-30 10:19:55     5.01     1830      29.7
 6  9370223236 Run           "Chill evening run"                             2023-07-01 18:21:45     8.01     2615      15.5
 7  9378957042 Run           "Askham Richard - Bilbrough - Cop - Bog - Bish" 2023-07-03 06:06:38    23        8126     102. 
 8  9385907307 Run           "Cows"                                          2023-07-04 11:12:57     6.3      2094      20.8
 9  9392630511 Run           "Golf course \"\"10\"\""                        2023-07-05 11:08:25    11.5      3790      29.3
10  9399049616 Run           "Threshold run 5x1km"                           2023-07-06 11:41:49    10.0      3119      16.8
# ℹ 1,161 more rows
# ℹ Use `print(n = ...)` to see more rows
```
…
